%YAML 1.1
%TAG !u! tag:unity3d.com,2011:
--- !u!78 &1
TagManager:
  serializedVersion: 2
  tags: []
  layers:
  - Default
  - TransparentFX
  - Ignore Raycast
  - 
  - Water
  - UI
  - 
  - 
  - Player
  - Enemy
  - Ground
  - OutOfBounds
  - ExitLevel
  - Collectible
  - Environment
  - Wall
  - CheckPoint
  - Collector
  - EnemyWalkable
  - 
  - 
  - 
  - 
  - 
  - 
  - 
  - 
  - 
  - 
  - 
  - 
  - 
  m_SortingLayers:
  - name: Default
    uniqueID: 0
    locked: 0
  - name: Background
    uniqueID: 2178555267
    locked: 0
  - name: Environment
    uniqueID: 10763109
    locked: 0
  - name: Collectibles
    uniqueID: 1475547177
    locked: 0
  - name: Enemies
    uniqueID: 1564751025
    locked: 0
  - name: Player
    uniqueID: 3446488521
    locked: 0
  - name: Foreground
    uniqueID: 1233612569
    locked: 0
  - name: UI
    uniqueID: 4288038263
    locked: 0
